963245 981440 458
310887 477672 449
584872 857990 525
230555 171279 386
948578 660430 525
622255 15446 470
739119 838609 525
204774 22979 383
423029 170703 449
787045 4566 509
349149 630316 509
393749 546923 470
422520 130239 449
596795 636594 509
611735 561061 434
813158 206915 509
34461 695922 509
141688 239664 443
989125 22046 525
235115 52422 443
958911 305374 525
581892 519160 452
228695 775720 509
283378 172352 443
83283 935550 525
586579 608 470
518875 341879 470
899479 484870 525
73132 869543 525
905324 432567 525
322674 11774 443
520646 379645 470
247901 948613 525
657532 621986 509
545866 86997 470
901559 492367 525
735173 214288 509
167366 910671 525
959188 667060 525
578460 29944 470
968104 310333 525
34726 486589 449
532352 839713 525
15131 166681 383
734636 110184 509
346528 496214 449
524822 269378 470
574219 441392 470
627426 304422 509
165819 477124 449
398668 142580 443
834103 383971 509
189377 951289 525
134510 394499 443
523632 298921 470
697158 341295 509
966163 2748 525
794968 643029 504
711281 982389 525
755011 427081 509
867586 936366 476
188647 532950 470
475929 729988 509
724868 534579 509
395272 78565 443
9022 435256 449
204544 867080 525
739640 397978 509
316368 178774 443
809715 586798 509
526407 605288 452
403146 799603 509
577210 120429 470
386718 745570 509
802760 873864 525
726002 134673 509
734550 961414 525
674179 73131 509
828395 825354 419
40561 458837 449
649142 662164 429
833740 531784 509
387999 537596 470
698285 684417 442
406920 712380 509
280419 59590 443
977115 240838 525
111049 926354 525
490764 141766 449
135098 817994 509
826670 324613 509
208509 484833 449
867909 259748 525
487831 691471 509
573285 550223 421
967593 717138 525
729069 856059 525
171749 408889 443
174896 868800 525
956590 643256 525
591296 57132 470
452099 873074 525
324240 747824 509
881004 84692 525
142506 119583 344
455651 437938 400
260915 609853 470
113647 298217 443
810075 197500 509
833531 577493 509
236828 731079 509
980223 429974 525
205388 930316 525
99010 168552 383
112785 690936 509
337533 230991 407
825918 80909 509
850000 621551 525
269923 912274 525
57084 295591 443
11710 107311 354
407893 39324 443
394818 360569 436
49842 437322 449
249813 4795 443
18817 799689 509
141042 382090 443
132540 737529 509
239775 289434 407
998675 831809 525
629925 687516 442
624001 63456 470
195131 401607 443
520992 113614 470
942628 614776 525
821325 686392 504
649004 179027 509
718159 169252 509
827689 542913 509
368115 771191 509
100458 958109 525
871017 992942 507
447556 700712 509
603496 485308 470
341599 403611 441
910499 339656 525
168055 236821 443
327464 427265 449
858522 430518 525
114358 754350 509
534491 420607 470
590955 150855 470
98907 533549 470
143362 806998 509
821396 875522 525
826125 156535 509
445546 729732 509
491958 847180 525
868636 466849 525
712646 600779 509
238652 205559 443
196285 607098 470
623610 433161 470
903441 603553 525
272834 758786 509
687886 990306 525
663489 631404 429
532183 952717 525
146038 533852 470
79321 326765 443
315774 310530 384
525750 515290 439
371140 401882 436
923300 180405 525
743282 503956 509
154617 278079 443
955340 994231 458
828468 283111 509
254253 891745 525
834771 836449 344
642296 358306 509
515563 396951 470
517919 218814 470
966653 361061 525
604946 560119 434
654026 400865 509
773933 144171 509
975965 284014 525
660693 6825 509
212124 784645 509
441416 402659 449
454367 932974 525
58918 414010 449
254961 646603 509
635119 976170 525
3513 251146 443
392493 847655 525
631840 426610 509
317129 936077 525
7141 895700 525
467428 702649 509
746390 447075 509
339905 936771 525
490263 303052 449
214734 905492 525
756073 999201 525
94196 504218 449
231062 812103 509
371543 272477 441
635680 485546 509
611843 600578 403
196759 236161 443
643743 877648 525
798035 995104 525
871277 79703 525
698222 712891 504
171928 541845 470
468646 940488 525
690853 846989 525
87701 487466 449
301166 903588 525
509009 552714 470
824679 826082 344
240158 769244 509
34502 678254 509
931766 247434 525
8772 291883 443
385975 26448 443
781439 929057 525
915469 833483 525
522762 297319 470
873488 442646 525
358646 408497 436
650085 249219 509
293875 498994 449
3087 512697 470
841259 26489 525
348207 70219 443
130447 253704 443
440933 660390 509
585970 265223 470
369386 775933 509
420156 424309 418
292641 13907 443
367045 163702 443
840163 452623 525
168554 195302 365
759038 46781 509
713488 416611 509
387077 666525 509
488848 583646 470
465071 365165 449
66146 940117 525
717321 681643 504
477254 245842 449
573857 351506 470
318913 846990 525
991498 44763 525
461283 638029 509
512131 862261 525
388064 564424 470
861207 317465 525
416120 848351 525
160883 701713 509
650015 839294 525
549724 415915 470
863392 921688 476
563109 115710 470
517518 746608 509
421040 92228 449
714388 829352 468
87680 500922 449
727326 727811 318
696985 236003 509
326844 544791 470
501362 95198 449
450245 856606 525
655077 646429 385
937774 803966 525
359319 205840 443
116494 173321 383
778570 192492 509
210088 905004 525
504678 721969 509
598876 141597 470
290380 419287 449
425123 356482 449
287195 746888 509
371188 878063 525
18366 267773 443
118865 910831 525
164185 33890 383
31681 647631 509
810498 823092 450
700780 243129 509
855840 730521 525
630597 541399 509
921293 78772 525
389798 987442 525
495164 758071 509
431158 91285 449
29389 867655 525
491544 787724 509
382054 403962 436
510655 894476 525
117047 485147 449
867703 634819 525
910226 279689 525
227372 572099 470
383388 408901 436
505228 989808 525
734509 814782 468
976598 190027 525
402002 89155 443
355263 338958 441
961820 639945 525
579596 421298 470
821631 695963 504
906394 565478 525
212197 887928 525
191428 974675 525
265521 932777 525
819929 319800 509
590118 34250 470
737548 759016 424
154618 923203 525
701539 413576 509
206872 682080 509
472611 173501 449
273894 82110 443
54338 284586 443
43185 550292 470
714443 933302 525
108280 207867 383
987568 262695 525
512901 651362 509
903939 606811 525
460069 702245 509
476386 481281 413
334003 690586 509
502684 706096 509
911443 986123 507
180545 217662 386
591387 373340 470
759963 887997 525
243374 321276 407
823679 524793 509
369878 661581 509
394380 375352 436
438412 829943 509
131505 338462 443
340403 255023 407
410915 554513 470
984331 247202 525
675067 674852 367
692233 321396 509
266677 393035 441
390924 94617 443
420997 437852 418
352867 79927 443
453439 558928 470
108231 321614 443
356477 679526 509
938785 726879 525
958158 892414 507
53730 808986 509
521711 439336 470
517173 567475 452
243503 476808 449
421048 300494 449
907935 382011 525
613156 571224 434
822910 73407 509
744810 756654 424
222665 965444 525
57724 511148 449
647496 594919 509
695852 369597 509
335188 35618 443
526914 901137 525
793471 260271 509
86125 50801 351
719997 462858 509
184079 28685 383
45390 39746 314
193878 96120 383
587362 934610 525
698908 645284 442
538776 7002 470
335332 421139 449
823817 287778 509
924257 628239 525
518674 32151 470
51054 977502 525
346081 33486 443
948168 507209 525
299181 820196 509
616901 612964 447
250113 282387 407
17512 701596 509
694934 169678 509
239477 951353 525
981462 455557 525
803129 282197 509
120675 327191 443
112068 386888 443
865030 526805 525
197951 995246 525
254629 924943 525
353615 615392 470
132154 310024 443
531394 32156 470
290068 299597 371
462852 574782 470
277803 9943 443
243217 726273 509
406844 252821 441
416673 797608 509
644549 281715 509
783111 547250 509
855694 408266 525
126644 202021 383
854835 525629 525
41012 951891 525
418753 46565 449
528296 402645 470
963943 135686 525
638784 878409 525
37510 807424 509
312924 640411 509
566102 642208 509
709743 288580 509
27721 223350 386
307650 157424 443
982349 765564 525
105837 855885 525
200180 550318 470
359451 897152 525
153878 641320 509
524317 198506 470
659436 638743 429
551902 209745 470
672555 826765 504
684268 683099 380
159150 295731 443
934906 221169 525
430125 513854 470
38257 107812 354
255394 648363 509
161941 180362 352
149730 168699 383
119805 500037 449
632825 934704 525
235921 975059 525
443257 610332 470
923493 960412 507
653374 768733 504
669414 391754 509
132801 767226 509
474931 941325 525
994746 826338 525
904637 530247 525
913586 642469 525
395358 498106 449
395715 305812 441
211647 366706 443
848223 503599 525
276690 887573 525
263978 543740 470
