443072 323609 449
526315 629162 509
61011 124781 354
928469 732275 525
351028 37519 443
385554 888824 525
935734 605714 525
563654 13352 470
293224 519701 470
687841 17119 509
844813 415445 525
263541 942216 525
336090 169079 443
637484 477423 509
271587 963013 525
349619 439238 449
954373 81709 525
722502 875051 525
102397 784633 509
401710 484415 449
698459 837140 504
922743 364457 525
730286 748999 424
164647 868551 525
259361 867651 525
983119 385612 525
57392 700248 509
316082 677081 509
307613 473898 449
757380 717531 424
110669 472331 449
193628 763045 509
468129 702210 509
294221 448247 449
343227 221598 443
781267 26659 509
928249 235257 525
411780 262338 449
517611 332311 470
447912 836470 509
553777 19177 470
406000 232900 441
458575 576936 470
212204 586261 470
289162 902679 525
776373 679651 504
378989 965983 525
148399 665718 509
147225 24512 375
444059 126975 449
127061 714704 509
100523 687755 509
694783 942258 525
603224 160981 470
862140 379782 525
733812 704818 411
8360 549973 470
278734 822801 509
990233 854737 507
658755 548609 509
887751 121913 525
709388 845345 525
34384 581717 470
157064 700040 509
447132 995330 525
403112 620557 470
704693 265441 509
280416 808606 509
365898 805271 509
415195 324298 449
533281 679402 509
770655 85102 509
51515 308067 443
765288 206932 509
854276 4835 525
457751 33853 449
808932 74820 509
657340 84760 509
371734 924127 525
189851 687481 509
534399 46796 470
269243 882991 525
84956 595768 470
861467 986782 507
196579 313522 443
92626 40311 351
489430 971062 525
819763 761286 468
528893 260276 470
811525 457565 509
3644 982018 525
504727 544064 470
208046 57837 383
653888 445217 509
21220 991021 525
423507 126842 449
319940 144862 443
292883 314143 384
754260 62706 509
601888 927042 525
284549 331513 389
847904 676771 525
323444 34397 443
973443 272074 525
385812 482273 449
529535 591528 452
996744 659838 525
861629 356687 525
403255 966447 525
191063 825186 509
634636 938145 525
63585 305357 443
728596 532666 509
75653 760410 509
160532 378983 443
870138 891281 445
469002 190933 449
494518 25301 449
865924 2938 525
629862 154953 509
768714 715411 468
271136 654097 509
789420 337127 509
929577 45807 525
170716 881823 525
742580 774470 468
320281 242681 407
335178 499695 449
457151 33779 449
368002 836199 509
371423 157424 443
646572 918633 525
250270 666546 509
60146 756170 509
56274 570124 470
172590 478048 449
502994 300407 449
982390 71129 525
510254 893072 525
268197 204556 443
740205 119855 509
309072 258704 407
636102 180484 509
613419 140442 470
915432 189482 525
335169 437095 449
11164 86553 351
412379 945263 525
88410 268296 443
346893 873226 525
868200 822560 525
343342 994274 525
984734 18887 525
505520 807041 509
366720 235377 441
629090 878112 525
410998 148255 449
806102 916674 525
737060 567286 509
925901 79340 525
551338 865642 525
15953 11152 276
659688 912013 525
645077 869917 525
460731 108584 449
493396 734277 509
289645 332703 384
899525 123673 525
149209 319810 443
367515 443557 449
880840 152924 525
794541 31551 509
403931 308888 441
31829 505586 449
222031 663324 509
770459 896858 525
849875 674243 525
367345 529880 470
642464 642972 292
84930 95068 333
124809 662686 509
287010 216068 443
664539 573607 509
802896 634301 504
250405 50157 443
619464 97483 470
934186 485232 525
330063 915561 525
215097 550233 470
762141 778932 468
430328 707310 509
904904 413084 525
784276 621888 509
137133 304492 443
4846 104615 351
906706 329323 525
653587 346652 509
428613 151576 449
649792 449776 509
150731 648552 509
186261 769254 509
330865 704830 509
353843 380531 423
557038 325706 470
765336 990649 525
921940 436402 525
744525 48009 509
888964 553750 525
787196 466735 509
455435 908725 525
197431 959366 525
855920 439424 525
251676 721968 509
702731 579250 509
618742 306425 470
577457 782292 509
711503 504031 509
351551 243772 441
343906 615820 470
5121 740551 509
377129 700843 509
408232 948375 525
623429 776512 509
27185 594606 470
854689 773938 525
237634 70014 443
194623 715952 509
885164 951112 507
15908 306952 443
641610 511867 509
427363 660381 509
303370 315176 384
708593 997646 525
849110 946912 507
445396 652858 509
392956 601818 470
200958 890400 525
807155 874027 525
952386 591174 525
76542 248756 443
387425 924835 525
129783 66905 354
380468 783208 509
595434 131096 470
541268 871859 525
421919 52288 449
540041 679597 509
746162 965917 525
358488 36101 443
209994 997397 525
189984 875548 525
931526 68614 525
186893 4310 383
10160 655310 509
830709 318782 509
630534 731275 504
827076 306036 509
44454 860629 525
314431 781504 509
383107 854448 525
422385 590735 470
632994 80957 509
833457 238811 509
448740 966046 525
854942 990660 507
334837 656612 509
560060 311324 470
368647 63915 443
397889 733290 509
125123 176455 383
718594 267908 509
938298 66005 525
918712 727280 525
904365 881619 445
182415 495175 449
907504 936316 476
908091 896426 445
692272 790306 504
186052 956044 525
248974 508617 449
882306 451097 525
716578 58573 509
802742 54424 509
963781 521872 525
540636 123369 470
665649 509510 509
801787 759480 468
260644 227954 443
732937 972667 525
170872 676401 509
558937 302187 470
136643 555765 470
617695 822856 509
877240 230171 525
749771 529648 509
265707 545185 470
522564 724967 509
639544 204066 509
462676 181402 449
732515 695727 504
