525410 280110 470
605996 583527 434
537960 754355 509
378453 855826 525
759880 935485 525
677676 169429 509
569780 836693 509
178507 312060 443
949251 633128 525
841368 713935 525
709511 354525 509
578349 988624 525
573342 251040 470
130684 354722 443
647714 775747 504
502259 201361 449
458371 332376 449
54892 116783 354
224166 394046 443
91566 633828 509
566484 147168 470
773714 649450 504
680182 151408 509
775761 609128 509
236930 408847 441
85953 541711 470
675069 637499 442
77193 428099 449
50919 641766 509
3200 508437 449
12069 307289 443
317848 213746 443
692922 587144 509
87916 728962 509
481090 690875 509
900618 490609 525
540124 964163 525
758390 768349 468
440674 489688 444
686693 794929 504
348858 840353 525
674176 875326 525
454614 990261 525
934263 19835 525
280329 188591 443
595719 851662 525
321417 597246 470
134341 986886 525
973929 515165 525
225396 941933 525
86008 854356 525
218219 572992 470
454814 95893 449
20154 866617 525
589819 89458 470
940516 691602 525
523265 202546 470
174688 38835 383
522337 568730 452
373739 508007 449
207109 467842 449
467268 652278 509
918721 336655 525
319821 175439 443
597158 861038 525
490064 614108 470
691872 645056 442
90250 46944 351
94036 210341 383
705515 172424 509
537845 896611 525
686082 229062 509
174851 718966 509
128673 801060 509
295933 343923 384
239706 969334 525
944440 383929 525
348926 544694 470
233359 11379 443
49383 189786 383
636744 886962 525
697603 893012 525
671970 248201 509
543860 161716 470
86036 808654 509
97220 802078 509
189819 125459 383
337481 197317 443
303912 619048 470
561588 773303 509
887756 224233 525
848802 141264 525
106432 45649 354
78894 323249 443
185246 273016 443
525829 99456 470
425040 819422 509
340188 435796 449
395577 666944 509
377586 3486 443
465882 956759 525
536802 577246 452
107380 824586 509
685472 271970 509
277449 155685 443
769535 495126 509
742323 719530 424
844301 397791 525
62898 467380 449
684985 814375 504
205518 995511 525
383741 580371 470
576640 47125 470
689317 808357 504
567331 112641 470
201801 639108 509
52223 718656 509
448114 937554 525
278439 1038 443
983189 539738 525
296454 298089 327
207642 156511 373
941291 436814 525
514898 677121 509
895972 239163 525
50288 820194 509
45554 479950 449
900141 176697 525
932249 464791 525
467941 981943 525
484383 412101 444
981739 267236 525
823462 761236 468
938532 912511 476
143614 136527 375
503903 159187 449
974561 338697 525
70767 144833 375
428679 939023 525
688694 994201 525
664031 682951 442
980792 508965 525
4535 888809 525
933456 669195 525
417186 959757 525
762578 889579 525
838585 779870 525
109120 450525 449
255908 282701 407
987007 693895 525
907194 288998 525
130995 594689 470
785148 655662 504
644519 58365 509
295262 683200 509
665539 76376 509
150210 196356 383
567087 560391 421
741652 14110 509
90583 894487 525
543065 585721 452
731714 908397 525
756248 400450 509
452517 22063 449
392522 441903 449
18868 947147 525
228203 500625 449
462407 422015 444
368582 241393 441
220629 143288 386
2433 455472 449
126091 462791 449
772625 394893 509
744322 655493 504
529582 191834 470
941574 792797 525
84395 553426 470
649836 990623 525
183201 289464 443
794971 335638 509
436913 702674 509
687476 33204 509
706453 966884 525
380014 684609 509
88363 116239 354
430648 668450 509
80640 267939 443
557622 29266 470
975665 516533 525
482673 904114 525
564768 204537 470
759295 352547 509
121003 301735 443
72836 440539 449
903482 329065 525
785345 933265 525
97719 83114 333
64702 244818 443
117509 414484 449
673695 289722 509
176174 729508 509
708132 855211 525
274534 729491 509
672548 163260 509
922834 28624 525
803524 391216 509
230616 376620 443
475396 366249 449
61810 268730 443
892902 83580 525
964745 651675 525
34531 484696 449
219674 844061 525
246667 994460 525
459102 658135 509
6745 305321 443
193190 543528 470
395331 430771 449
496012 554614 470
89341 812576 509
487283 169108 449
340724 437675 449
554182 80255 470
274737 576651 470
586414 666830 509
115412 749086 509
