637209 304847
935899 817882
722418 833275
710994 955481
653036 917116
652089 712160
974508 74682
56401 458558
600667 649312
189518 651115
335981 995482
181250 660147
641337 668028
114999 272931
381478 827962
496123 395178
714249 312186
72240 938653
25955 762599
927695 376937
557203 719530
173905 271487
106150 218906
594536 98008
557020 420548
120734 814253
419341 505246
668096 18188
832089 844499
454822 561233
760001 610118
923765 871475
935736 942205
60526 676897
218276 833478
117888 68779
124017 330910
646972 590403
938901 17858
570480 577896
549389 771805
617168 119366
384868 180040
4680 423903
815143 425855
327045 682347
591267 172807
499724 517164
928691 382250
968831 491420
527344 356838
799105 208810
900781 451031
30879 570172
992010 603080
849913 152127
970080 679965
171453 619194
659860 952400
807417 905829
888120 720528
740568 278914
642 490033
805189 358369
10855 216029
329622 504726
918941 213319
6437 262407
180769 186106
542359 940351
879977 650559
886591 363710
981436 666761
621494 180484
949034 360397
720810 381084
598289 521108
191616 552722
312321 475244
542356 403936
568545 719451
570366 642975
421025 535424
186672 205395
298684 894890
357614 392523
958947 528103
876024 757124
28933 110225
942253 551866
611427 822236
872908 324070
762458 545165
480671 23236
89351 161485
441070 663925
49787 762410
4283 803158
989007 721817
512905 67650
639539 159841
750334 216576
357328 502608
521260 430316
296909 310197
956184 389171
455270 712689
335318 80130
908373 202506
530698 581360
387610 19192
374698 569944
861178 795820
475105 894131
294633 423462
494788 559864
815900 723653
681278 666919
406351 850912
865348 500019
64577 84442
225743 997459
332718 448427
200321 282376
295576 228140
713314 807412
190099 887345
767444 163941
152963 967216
345805 676695
973042 508050
612190 508449
227925 425485
367042 253100
184640 741699
157617 402546
228514 178494
139346 693492
943664 375590
272079 321780
565781 874401
764686 952812
244595 240381
68567 850989
691727 6781
375354 52568
369641 254852
894559 346658
538287 746103
7585 701306
949153 796326
921403 583061
371446 381779
384618 697447
437360 915177
102504 536249
8294 753057
536977 103689
979231 720534
943478 503933
342187 596602
601850 495105
65532 44792
143595 685277
419995 156751
968073 410526
782610 514247
735409 794476
659101 611659
758838 388785
218296 717379
127454 117088
213139 782081
312386 139549
209049 962978
182024 26872
517067 953574
468462 819681
757248 957259
667372 521368
72878 407812
748816 894434
217811 847227
874944 104523
654409 755477
669737 861740
80933 675366
362798 665557
684652 568653
101053 888482
415557 358733
451498 206927
340737 856417
972408 263925
216991 669244
574544 293953
321395 593525
515286 15811
178212 514017
218530 168910
304225 119140
465108 209035
76171 32583
